GEM500: Estimating Landscape Patterns
…
With pylandstats is a bit more tricky. You’d need to explore the online documentation or the properties of a Landscape object as it is generated using landscape = pls.Landscape(). By using dir(landscape) you can see the list of available properties associated with the object. However, for a more detailed description, refer to the online documentation.

Metric calculation

Let’s explore how to actually use the libraries. A metric of interest for fire is area.

Code

lands[0].area()

Code

lsm_p_area(flagged[[1]], directions = 8)

# A tibble: 115 × 6
   layer level class    id metric   value
   <int> <chr> <int> <int> <chr>    <dbl>
 1     1 patch     1     1 area      1.08
 2     1 patch     1     2 area   2121.  
 3     1 patch     1     3 area      0.09
 4     1 patch     1     4 area      4.77
 5     1 patch     1     5 area      0.09
 6     1 patch     1     6 area      0.09
 7     1 patch     1     7 area      0.09
 8     1 patch     1     8 area      0.27
 9     1 patch     1     9 area      0.09
10     1 patch     1    10 area      0.09
# ℹ 105 more rows

Here we see that the functions both output the area associated to each patch in the first landscape. In total, we have 115 patches identified using a 8-neighboring rule. Note that the python output is 0-indexed, whereas the R output is 1-indexed. The area values are unitless, so care must be taken when interpreting these metrics. We also see that there is a class column. This matches the length of our classes (1-2), so within each class, we have a certain number of patches. In particular, 49 patches for class 1 and 66 for class 2.

A great feature about the R library is that all metrics are returned in the same format. You will always have a tibble with the same number of columns and naming such that you can easily combine the output of different metrics into a single dataframe. In python, it’s a bit more complicated to do as values are either returned as dataframes or numbers.

What if we wanted to extract multiple metrics at a time. That’s another easy task! We can use the calculate_lsm function in the landscapemetrics package to calculate multiple metrics for a specific “level” and “type” (as defined by lsm_list()) or we can specify the what parameter for an ad-hoc list of metrics of interest.

Code

# all metrics by level and type
patch_level <- calculate_lsm(landscape = flagged[[1]], 
                             level = "patch", type = "area and edge metric")
patch_level

# A tibble: 345 × 6
   layer level class    id metric   value
   <int> <chr> <int> <int> <chr>    <dbl>
 1     1 patch     1     1 area      1.08
 2     1 patch     1     2 area   2121.  
 3     1 patch     1     3 area      0.09
 4     1 patch     1     4 area      4.77
 5     1 patch     1     5 area      0.09
 6     1 patch     1     6 area      0.09
 7     1 patch     1     7 area      0.09
 8     1 patch     1     8 area      0.27
 9     1 patch     1     9 area      0.09
10     1 patch     1    10 area      0.09
# ℹ 335 more rows

Code

# metrics of interest
multiple_metrics <- calculate_lsm(landscape = flagged[[1]], 
                                  what = c("lsm_p_area", "lsm_p_para"))
multiple_metrics

# A tibble: 230 × 6
   layer level class    id metric   value
   <int> <chr> <int> <int> <chr>    <dbl>
 1     1 patch     1     1 area      1.08
 2     1 patch     1     2 area   2121.  
 3     1 patch     1     3 area      0.09
 4     1 patch     1     4 area      4.77
 5     1 patch     1     5 area      0.09
 6     1 patch     1     6 area      0.09
 7     1 patch     1     7 area      0.09
 8     1 patch     1     8 area      0.27
 9     1 patch     1     9 area      0.09
10     1 patch     1    10 area      0.09
# ℹ 220 more rows
…
